<?xml version="1.0" encoding="utf-8"?>
<!-- Generator: Adobe Illustrator 25.0.0, SVG Export Plug-In . SVG Version: 6.00 Build 0)  -->
<svg version="1.1" xmlns="http://www.w3.org/2000/svg" xmlns:xlink="http://www.w3.org/1999/xlink" x="0px" y="0px"
	 viewBox="0 0 339.73 187.9" style="enable-background:new 0 0 339.73 187.9;" xml:space="preserve">
<style type="text/css">
	.st0{fill:#002D33;}
	.st1{fill:#3B1022;}
	.st2{fill:#090918;}
	.st3{fill:#101227;}
	.st4{fill:#0C2F2B;}
	.st5{fill:#0C0D0E;}
	.st6{fill:#202020;}
	.st7{fill:#005A66;}
	.st8{fill:#772044;}
	.st9{fill:#121230;}
	.st10{fill:#21244F;}
	.st11{fill:#195E57;}
	.st12{fill:#191B1C;}
	.st13{fill:#404040;}
	.st14{fill:#008698;}
	.st15{fill:#B23066;}
	.st16{fill:#1B1B48;}
	.st17{fill:#323676;}
	.st18{fill:#268C82;}
	.st19{fill:#252829;}
	.st20{fill:#605F5F;}
	.st21{fill:#00B3CB;}
	.st22{fill:#ED4088;}
	.st23{fill:#242460;}
	.st24{fill:#42489D;}
	.st25{fill:#32BBAD;}
	.st26{fill:#313537;stroke:#FFFFFF;stroke-width:0.6984;stroke-miterlimit:10;}
	.st27{fill:#807F7F;}
	.st28{fill:#33C2D5;}
	.st29{fill:#F166A0;}
	.st30{fill:#505080;}
	.st31{fill:#686DB1;}
	.st32{fill:#5BC9BD;}
	.st33{fill:#5A5D5F;}
	.st34{fill:#999999;}
	.st35{fill:#66D1E0;}
	.st36{fill:#F48CB8;}
	.st37{fill:#7C7CA0;}
	.st38{fill:#8E91C4;}
	.st39{fill:#84D6CE;}
	.st40{fill:#838687;}
	.st41{fill:#B3B2B2;}
	.st42{fill:#99E1EA;}
	.st43{fill:#F8B3CF;}
	.st44{fill:#A7A7BF;}
	.st45{fill:#B3B6D8;}
	.st46{fill:#ADE4DE;}
	.st47{fill:#ADAEAF;}
	.st48{fill:#CCCCCC;}
	.st49{fill:#CCF0F5;}
	.st50{fill:#FBD9E7;}
	.st51{fill:#D3D3DF;}
	.st52{fill:#D9DAEB;}
	.st53{fill:#D6F1EF;}
	.st54{fill:#D6D7D7;}
	.st55{fill:#E6E5E5;}
	.st56{fill:#AEE1F4;}
	.st57{fill:#86D6F4;}
	.st58{fill:#D2FAFA;}
	.st59{fill:none;stroke:#FFFFFF;stroke-width:55.418;stroke-miterlimit:10;}
	.st60{fill:#FFFFFF;}
</style>
<g id="Ice_Bg">
</g>
<g id="Chocolate_Ice">
	<rect x="-1031.15" y="-249.31" width="25.51" height="24.48"/>
	<rect x="-999.17" y="-249.31" width="25.51" height="24.48"/>
	<rect x="-967.2" y="-249.31" width="25.51" height="24.48"/>
	<rect x="-889.12" y="-249.31" width="25.51" height="24.48"/>
	<rect x="-857.14" y="-249.31" width="25.51" height="24.48"/>
	<rect x="-797.23" y="-249.31" width="25.51" height="24.48"/>
	<rect x="-765.25" y="-249.31" width="25.51" height="24.48"/>
	<rect x="-1031.15" y="-211.1" class="st0" width="25.51" height="24.48"/>
	<rect x="-999.17" y="-211.1" class="st1" width="25.51" height="24.48"/>
	<rect x="-967.2" y="-211.1" class="st2" width="25.51" height="24.48"/>
	<rect x="-889.12" y="-211.1" class="st3" width="25.51" height="24.48"/>
	<rect x="-857.14" y="-211.1" class="st4" width="25.51" height="24.48"/>
	<rect x="-797.23" y="-211.1" class="st5" width="25.51" height="24.48"/>
	<rect x="-765.25" y="-211.1" class="st6" width="25.51" height="24.48"/>
	<rect x="-1031.15" y="-172.89" class="st7" width="25.51" height="24.48"/>
	<rect x="-999.17" y="-172.89" class="st8" width="25.51" height="24.48"/>
	<rect x="-967.2" y="-172.89" class="st9" width="25.51" height="24.48"/>
	<rect x="-889.12" y="-172.89" class="st10" width="25.51" height="24.48"/>
	<rect x="-857.14" y="-172.89" class="st11" width="25.51" height="24.48"/>
	<rect x="-797.23" y="-172.89" class="st12" width="25.51" height="24.48"/>
	<rect x="-765.25" y="-172.89" class="st13" width="25.51" height="24.48"/>
	<rect x="-1031.15" y="-134.68" class="st14" width="25.51" height="24.48"/>
	<rect x="-998.93" y="-134.68" class="st15" width="25.51" height="24.48"/>
	<rect x="-967.1" y="-134.68" class="st16" width="25.51" height="24.48"/>
	<rect x="-888.37" y="-134.68" class="st17" width="25.51" height="24.48"/>
	<rect x="-855.69" y="-134.68" class="st18" width="25.51" height="24.48"/>
	<rect x="-795.9" y="-134.68" class="st19" width="25.51" height="24.48"/>
	<rect x="-765.25" y="-134.68" class="st20" width="25.51" height="24.48"/>
	<rect x="-1031.15" y="-96.48" class="st21" width="25.51" height="24.48"/>
	<rect x="-998.93" y="-96.48" class="st22" width="25.51" height="24.48"/>
	<rect x="-967.1" y="-96.48" class="st23" width="25.51" height="24.48"/>
	<rect x="-888.37" y="-96.48" class="st24" width="25.51" height="24.48"/>
	<rect x="-855.69" y="-96.48" class="st25" width="25.51" height="24.48"/>
	<rect x="-795.9" y="-96.48" class="st26" width="25.51" height="24.48"/>
	<rect x="-765.25" y="-96.48" class="st27" width="25.51" height="24.48"/>
	<rect x="-1031.15" y="-58.27" class="st28" width="25.51" height="24.48"/>
	<rect x="-998.93" y="-58.27" class="st29" width="25.51" height="24.48"/>
	<rect x="-967.1" y="-58.27" class="st30" width="25.51" height="24.48"/>
	<rect x="-888.37" y="-58.27" class="st31" width="25.51" height="24.48"/>
	<rect x="-855.69" y="-58.27" class="st32" width="25.51" height="24.48"/>
	<rect x="-795.9" y="-58.27" class="st33" width="25.51" height="24.48"/>
	<rect x="-765.25" y="-58.27" class="st34" width="25.51" height="24.48"/>
	<rect x="-1031.15" y="-20.06" class="st35" width="25.51" height="24.48"/>
	<rect x="-998.93" y="-20.06" class="st36" width="25.51" height="24.48"/>
	<rect x="-967.1" y="-20.06" class="st37" width="25.51" height="24.48"/>
	<rect x="-888.37" y="-20.06" class="st38" width="25.51" height="24.48"/>
	<rect x="-855.69" y="-20.06" class="st39" width="25.51" height="24.48"/>
	<rect x="-795.9" y="-20.06" class="st40" width="25.51" height="24.48"/>
	<rect x="-765.25" y="-20.06" class="st41" width="25.51" height="24.48"/>
	<rect x="-1031.15" y="18.15" class="st42" width="25.51" height="24.48"/>
	<rect x="-998.93" y="18.15" class="st43" width="25.51" height="24.48"/>
	<rect x="-967.1" y="18.15" class="st44" width="25.51" height="24.48"/>
	<rect x="-888.37" y="18.15" class="st45" width="25.51" height="24.48"/>
	<rect x="-855.69" y="18.15" class="st46" width="25.51" height="24.48"/>
	<rect x="-795.9" y="18.15" class="st47" width="25.51" height="24.48"/>
	<rect x="-765.25" y="18.15" class="st48" width="25.51" height="24.48"/>
	<rect x="-1031.15" y="56.36" class="st49" width="25.51" height="24.48"/>
	<rect x="-998.93" y="56.36" class="st50" width="25.51" height="24.48"/>
	<rect x="-967.1" y="56.36" class="st51" width="25.51" height="24.48"/>
	<rect x="-888.37" y="56.36" class="st52" width="25.51" height="24.48"/>
	<rect x="-855.69" y="56.36" class="st53" width="25.51" height="24.48"/>
	<rect x="-795.9" y="56.36" class="st54" width="25.51" height="24.48"/>
	<rect x="-765.25" y="56.36" class="st55" width="25.51" height="24.48"/>
	<g>
		<polygon class="st21" points="-920.26,-551.69 -927.76,-551.69 -972.14,-538.65 -875.88,-538.65 		"/>
		<polygon class="st21" points="-918.55,-690.71 -928.39,-690.71 -926.15,-546.69 -920.78,-546.69 		"/>
		<path class="st14" d="M-922.55-615.13c0.95,0,1.89,0.09,2.82,0.23l1.17-75.81h-9.84l1.19,76.17
			C-925.68-614.92-924.13-615.13-922.55-615.13z"/>
		<rect x="-1072.39" y="-751.87" class="st21" width="297.83" height="4.48"/>
		<path class="st21" d="M-1043.79-649.86c9.38-2.05,66.05-10.25,106.11-8.5c0,0-33.66-24.91-67.75-21.68
			C-1039.52-676.82-1043.79-649.86-1043.79-649.86z"/>
		<path class="st21" d="M-919.35-657.77c9.83-0.22,71.53-2.45,109.39,6.72c0,0-19.5-26.93-53.59-30.19
			C-897.63-684.51-919.35-657.77-919.35-657.77z"/>
		<path class="st56" d="M-1076.1-751.38c-0.13-0.69,0.18-1.39,0.85-1.91c0.67-0.52,1.64-0.82,2.65-0.82h298.08
			c1,0,1.95,0.29,2.62,0.8c0.67,0.51,1,1.19,0.9,1.88c-2.48,16.57-16.03,104.55-24.9,105.06c-9.79,0.56-51.23-21.62-61.83-19.94
			c-10.61,1.69-47.52,11.52-75.26,9.27c-27.74-2.24-52.65-12.8-61.2-11.78c-18.77,2.25-44.07,21.32-53.86,19.64
			C-1056.88-650.71-1073.04-735.01-1076.1-751.38z"/>
		<g>
			<path class="st57" d="M-771.89-753.31c-0.67-0.51-1.63-0.8-2.62-0.8h-4.67c-0.47,38.22-22.75,72.09-57.04,93.46
				c15.62,6.04,34.18,14.62,40.32,14.27c8.87-0.51,22.42-88.48,24.91-105.06C-770.9-752.13-771.23-752.81-771.89-753.31z"/>
			<path class="st57" d="M-1064.62-754.12h-7.97c-1.01,0-1.98,0.3-2.65,0.82c-0.67,0.52-0.98,1.22-0.85,1.91
				c3.05,16.37,19.21,100.67,28.05,102.19c6.92,1.19,21.57-7.97,36.19-14.25C-1043.71-684.9-1064.17-717.52-1064.62-754.12z"/>
		</g>
		<path class="st58" d="M-1076.03-751.01c13.92,11.48,284.95,13.24,304.96,0c0.76-1.6,1.71-4.08-2.27-4.08h-300.44
			C-1077.75-755.09-1076.96-752.66-1076.03-751.01z"/>
		<path class="st28" d="M-854.73-672.47c-11.09,1.69-49.68,11.52-78.69,9.28c-29.01-2.24-55.06-12.81-63.99-11.78
			c-18.93,2.16-44.22,19.99-55.17,19.73c1.64,3.61,3.17,5.82,4.54,6.06c9.79,1.69,35.09-17.4,53.85-19.64
			c8.55-1.02,33.46,9.54,61.2,11.79c27.75,2.24,64.65-7.59,75.26-9.28c10.61-1.68,52.04,20.5,61.83,19.93
			c1.41-0.08,2.93-2.36,4.5-6.2C-803.57-653.64-844.06-674.09-854.73-672.47z"/>
	</g>
</g>
<g id="Yellow_ice">
	<g>
		<g>
			<line class="st59" x1="0" y1="93.95" x2="276.39" y2="93.95"/>
			<g>
				<polygon class="st60" points="166,187.9 260.01,93.95 166,0 245.78,0 339.73,93.95 245.78,187.9 				"/>
			</g>
		</g>
	</g>
</g>
</svg>
