<svg width="56" height="56" viewBox="0 0 56 56" fill="none" xmlns="http://www.w3.org/2000/svg">
<path d="M50.8795 23.4303H49V23.3334H28V32.6667H41.1869C39.263 38.0999 34.0935 42.0001 28 42.0001C20.2685 42.0001 14 35.7316 14 28.0001C14 20.2686 20.2685 14.0001 28 14.0001C31.5689 14.0001 34.8157 15.3464 37.2879 17.5456L43.8877 10.9457C39.7204 7.06191 34.146 4.66675 28 4.66675C15.1142 4.66675 4.66669 15.1142 4.66669 28.0001C4.66669 40.8859 15.1142 51.3334 28 51.3334C40.8859 51.3334 51.3334 40.8859 51.3334 28.0001C51.3334 26.4356 51.1724 24.9084 50.8795 23.4303Z" fill="#FFC107"/>
<path d="M7.35699 17.1396L15.0232 22.7617C17.0975 17.6261 22.1212 14.0001 28 14.0001C31.5688 14.0001 34.8157 15.3464 37.2878 17.5456L43.8877 10.9457C39.7203 7.06191 34.146 4.66675 28 4.66675C19.0377 4.66675 11.2653 9.72658 7.35699 17.1396Z" fill="#FF3D00"/>
<path d="M28 51.3334C34.027 51.3334 39.5033 49.0269 43.6438 45.2761L36.4221 39.1651C34.0795 40.9396 31.1675 42.0001 28 42.0001C21.931 42.0001 16.7778 38.1302 14.8365 32.7297L7.22748 38.5922C11.0891 46.1487 18.9315 51.3334 28 51.3334Z" fill="#4CAF50"/>
<path d="M50.8795 23.4301H49V23.3333H28V32.6666H41.1868C40.2628 35.2764 38.584 37.5269 36.4187 39.1661C36.4198 39.1649 36.421 39.1649 36.4222 39.1638L43.6438 45.2748C43.1328 45.7391 51.3333 39.6666 51.3333 27.9999C51.3333 26.4354 51.1723 24.9083 50.8795 23.4301Z" fill="#1976D2"/>
</svg>
