<?xml version="1.0" encoding="utf-8"?>
<!-- Generator: Adobe Illustrator 25.0.0, SVG Export Plug-In . SVG Version: 6.00 Build 0)  -->
<svg version="1.1" id="Layer_1" xmlns="http://www.w3.org/2000/svg" xmlns:xlink="http://www.w3.org/1999/xlink" x="0px" y="0px"
	 viewBox="0 0 100 100" style="enable-background:new 0 0 100 100;" xml:space="preserve">
<style type="text/css">
	.st0{fill:#FFFFFF;}
</style>
<path class="st0" d="M49.6,11.6c-8.6,0-16.9,2.9-23.6,8.2c-6.7,5.3-11.5,12.7-13.6,21c-2,8.3-1.2,17.1,2.3,24.9
	C18.2,73.6,24.2,80,31.8,84c7.6,4,16.3,5.3,24.7,3.8c8.4-1.5,16.1-5.9,21.8-12.3L49.6,50L49.6,11.6z"/>
<path class="st0" d="M49.6,99.6c-13.1,0-25.8-5.2-35.1-14.5C5.2,75.8,0,63.1,0,50s5.2-25.8,14.5-35.1C21.4,8,30.3,3.3,39.9,1.4
	c9.6-1.9,19.6-0.9,28.6,2.8C77.6,8,85.3,14.3,90.8,22.5c5.4,8.2,8.4,17.7,8.4,27.5c0,13.1-5.2,25.7-14.5,35
	C75.3,94.3,62.7,99.6,49.6,99.6L49.6,99.6z M49.6,7.5c-11.3,0-22.1,4.5-30.1,12.4c-8,8-12.4,18.8-12.4,30.1
	c0,11.3,4.5,22.1,12.4,30.1c8,8,18.8,12.4,30.1,12.4c11.3,0,22.1-4.5,30.1-12.4c8-8,12.4-18.8,12.4-30.1c0-11.3-4.5-22.1-12.5-30
	S60.8,7.5,49.6,7.5z"/>
</svg>
