<?xml version="1.0" encoding="utf-8"?>
<!-- Generator: Adobe Illustrator 25.0.0, SVG Export Plug-In . SVG Version: 6.00 Build 0)  -->
<svg version="1.1" id="Layer_1" xmlns="http://www.w3.org/2000/svg" xmlns:xlink="http://www.w3.org/1999/xlink" x="0px" y="0px"
	 viewBox="0 0 25.6 25.6" style="enable-background:new 0 0 25.6 25.6;" xml:space="preserve">
<style type="text/css">
	.st0{fill-rule:evenodd;clip-rule:evenodd;fill:url(#SVGID_1_);}
	.st1{fill-rule:evenodd;clip-rule:evenodd;fill:#FFFFFF;}
</style>
<g>
	<g>
		<linearGradient id="SVGID_1_" gradientUnits="userSpaceOnUse" x1="21.3746" y1="20.5681" x2="3.8571" y2="4.6983">
			<stop  offset="0" style="stop-color:#FEC053"/>
			<stop  offset="0.3273" style="stop-color:#F2203E"/>
			<stop  offset="0.6485" style="stop-color:#B729A8"/>
			<stop  offset="1" style="stop-color:#5342D6"/>
		</linearGradient>
		<path class="st0" d="M4.3,0h17.1c2.3,0,4.3,1.9,4.3,4.3v17.1c0,2.3-1.9,4.3-4.3,4.3H4.3c-2.3,0-4.3-1.9-4.3-4.3V4.3
			C0,1.9,1.9,0,4.3,0L4.3,0z"/>
	</g>
	<g>
		<path class="st1" d="M18.8,12.8c0-3.3-2.7-6-6-6c-3.3,0-6,2.7-6,6c0,3.3,2.7,6,6,6C16.1,18.8,18.8,16.1,18.8,12.8L18.8,12.8z
			 M18.6,6c-0.5,0-1,0.4-1,1c0,0.5,0.4,1,1,1c0.5,0,1-0.4,1-1C19.6,6.5,19.2,6,18.6,6L18.6,6z M7.9,4.7h9.7c1.8,0,3.3,1.5,3.3,3.3
			v9.7c0,1.8-1.5,3.3-3.3,3.3H7.9c-1.8,0-3.3-1.5-3.3-3.3V7.9C4.7,6.1,6.1,4.7,7.9,4.7L7.9,4.7z M17.7,3.6H7.9c-2.4,0-4.4,2-4.4,4.4
			v9.7c0,2.4,2,4.4,4.4,4.4h9.7c2.4,0,4.4-2,4.4-4.4V7.9C22,5.5,20.1,3.6,17.7,3.6L17.7,3.6z M8.1,12.8c0-2.6,2.1-4.7,4.7-4.7
			s4.7,2.1,4.7,4.7c0,2.6-2.1,4.7-4.7,4.7S8.1,15.4,8.1,12.8L8.1,12.8z"/>
	</g>
</g>
</svg>
