<?xml version="1.0" encoding="utf-8"?>
<!-- Generator: Adobe Illustrator 25.0.0, SVG Export Plug-In . SVG Version: 6.00 Build 0)  -->
<svg version="1.1" id="Layer_1" xmlns="http://www.w3.org/2000/svg" xmlns:xlink="http://www.w3.org/1999/xlink" x="0px" y="0px"
	 viewBox="0 0 50 53" style="enable-background:new 0 0 50 53;" xml:space="preserve">
<style type="text/css">
	.st0{fill:#FF6C0D;}
</style>
<g>
	<path class="st0" d="M50,36.1c-0.2-3.7-1.4-6.8-4-10.1c-2-2.6-4.6-4.5-7.4-5.5c2.4-1.5,4-4.1,4-7.2c0-4.7-3.8-8.5-8.4-8.5
		c-4.6,0-8.4,3.8-8.4,8.5c0,0.5,0.1,1,0.1,1.4c-0.3,0-0.6-0.1-0.9-0.1c-0.3,0-0.7,0-1,0.1c0.1-0.4,0.1-0.9,0.1-1.4
		c0-4.6-3.8-8.4-8.4-8.4c-4.6,0-8.4,3.8-8.4,8.4c0,3,1.6,5.6,4,7.1C8.5,21.5,6,23.4,4,26c-2.6,3.3-3.8,6.4-4,10.1
		c0,0.4,0.3,0.8,0.6,1c0,0,0,0,0,0c3.1,1.2,7.1,2.1,10.3,2.5c-1,2.2-1.5,4.8-1.6,8c0,0.4,0.2,0.7,0.5,0.9c0,0,0,0,0,0c0,0,0,0,0.1,0
		c0,0,0,0,0.1,0c3.8,1.4,8.8,2.1,15,2.1l0,0l0,0c6.1,0,11.2-0.7,15-2.1c0,0,0,0,0.1,0c0,0,0.1,0,0.1,0c0,0,0,0,0,0
		c0.3-0.2,0.5-0.5,0.5-0.9c-0.1-3.2-0.7-5.8-1.6-8c3.3-0.4,7.2-1.3,10.3-2.5c0,0,0,0,0.1,0c0,0,0.1,0,0.1,0c0,0,0,0,0,0
		C49.8,36.8,50,36.5,50,36.1z M27.9,13.3c0-3.5,2.8-6.4,6.3-6.4c3.5,0,6.3,2.9,6.3,6.4s-2.8,6.4-6.3,6.4c0,0,0,0,0,0l0,0l0,0l0,0
		c0,0,0,0,0,0c-0.5,0-1-0.1-1.5-0.2c-0.9-1.9-2.6-3.4-4.5-4.2C28,14.7,27.9,14,27.9,13.3z M31.6,23.4c0,3.6-2.9,6.6-6.6,6.6
		s-6.6-3-6.6-6.6s2.9-6.6,6.6-6.6S31.6,19.8,31.6,23.4z M38.5,46.9c-3.5,1.2-8,1.8-13.5,1.8l0,0l0,0c-5.5,0-10-0.6-13.5-1.8
		c0.3-3.9,1.2-6.9,2.9-9.1c2.8-3.6,6.6-5.7,10.5-5.7c3.9,0,7.8,2.1,10.6,5.7C37.3,40,38.2,42.8,38.5,46.9z M9.4,13.4
		c0-3.5,2.8-6.3,6.3-6.3s6.3,2.8,6.3,6.3c0,0.7-0.1,1.3-0.3,1.9c-1.9,0.8-3.5,2.3-4.5,4.2c-0.5,0.1-1,0.2-1.5,0.2h0l0,0l0,0
		c0,0,0,0,0,0C12.3,19.7,9.4,16.9,9.4,13.4z M2.1,35.4c0.3-2.9,1.3-5.4,3.5-8.1c2.7-3.4,6.4-5.4,10.1-5.4c0,0,0,0,0,0
		c0.2,0,0.5,0,0.7,0c-0.1,0.5-0.1,1-0.1,1.5c0,3.1,1.7,5.9,4.2,7.4c-2.9,1-5.6,2.9-7.7,5.7c-0.3,0.3-0.5,0.7-0.8,1.1
		C9.1,37.3,5.2,36.5,2.1,35.4z M37.2,36.5c-2.1-2.7-4.8-4.7-7.7-5.7c2.5-1.5,4.1-4.3,4.1-7.4c0-0.6-0.1-1.1-0.2-1.6
		c0.2,0,0.4,0,0.7,0c0,0,0,0,0,0c3.8,0,7.5,2,10.2,5.5c2.1,2.7,3.2,5.2,3.4,8.2c-3.1,1.1-6.9,1.9-9.9,2.1
		C37.8,37.2,37.5,36.8,37.2,36.5z"/>
</g>
</svg>
